{
    "project": "Mosque Location in Denpasar",
    "author": "ianrizky",
    "property": {
        "token": "pk.eyJ1IjoiaWFucml6a3kiLCJhIjoiY2ptYnp4ZHJiMDRqcTN3bXcweTg2cWppdyJ9.ZWh5YZNgSaS8WCbBrR7h-w",
        "map_icon": "fas fa-map-marker-alt",
        "map_id": "leaflet-map",
        "style_image": "max-width: 100%; max-height: 190px; display: block; margin: 0 auto;",
        "setting": {
            "zoom": 11,
            "maxzoom": 18,
            "focuszoom": 16,
            "location": {
                "longitude": -8.7128306,
                "langitude": 115.2156895
            }
        }
    },
    "data": [
        {
            "id": "mosque-ikhlas",
            "name": "Musholla Al-Ikhlas",
            "url": "https://goo.gl/maps/VKngRgA1XLp",
            "image": "https://lh5.googleusercontent.com/p/AF1QipPsSbCyDEW2jX9iHNB6259sVdXLFjmpj8tbFh8E=w203-h270-k-no",
            "location": {
                "longitude": -8.7128306,
                "langitude": 115.2156895
            }
        },
        {
            "id": "mosque-muawwanatul",
            "name": "Masjid Muawwanatul Khoiriyah Suwung",
            "url": "https://goo.gl/maps/H6Gk7Nq6TcL2",
            "image": "https://lh5.googleusercontent.com/p/AF1QipN6ESLtPdgobXPrXHjXCmczsH8xgJ_lnF8sEfLF=s398-k-no",
            "location": {
                "longitude": -8.7108705,
                "langitude": 115.2264013
            }
        },
        {
            "id": "mosque-ihsan",
            "name": "Masjid Al-Ihsan Sanur",
            "url": "https://goo.gl/maps/QgLRQ8uSJ7N2",
            "image": "https://lh5.googleusercontent.com/p/AF1QipMxserk0mI4FgQz55kIz4kOExRLJmLoieMjaYa9=w203-h152-k-no",
            "location": {
                "longitude": -8.6751056,
                "langitude": 115.2607016
            }
        },
        {
            "id": "mosque-nur",
            "name": "Masjid An-Nur Sanglah",
            "url": "https://goo.gl/maps/LABESeJ35yD2",
            "image": "https://lh5.googleusercontent.com/p/AF1QipPkrhLb-7Y-yiQWomum4DYSkfV4dxwf_JoTuL15=w203-h152-k-no",
            "location": {
                "longitude": -8.6742069,
                "langitude": 115.2154016
            }
        },
        {
            "id": "mosque-darussalam",
            "name": "Masjid Darussalam Ubung",
            "url": "https://goo.gl/maps/G7YGP6JNZMC2",
            "image": "https://lh5.googleusercontent.com/p/AF1QipNZ5Y0E63dHzGwzxDWcMr5E___0TKfXlbVfDsKb=w203-h270-k-no",
            "location": {
                "longitude": -8.6267288,
                "langitude": 115.2005902
            }
        },
        {
            "id": "mosque-muhammad",
            "name": "Masjid Muhammad Imam Bonjol",
            "url": "https://goo.gl/maps/aB8GqYg49CG2",
            "image": "https://lh5.googleusercontent.com/p/AF1QipOpzWNAAtZe6fv4Nx6tihYIkh03-kLUhkYT8XL-=w203-h152-k-no",
            "location": {
                "longitude": -8.6901777,
                "langitude": 115.191482
            }
        },
        {
            "id": "mosque-sudirman",
            "name": "Masjid Agung Sudirman Denpasar",
            "url": "https://goo.gl/maps/CBo6NeCZ26y",
            "image": "https://lh5.googleusercontent.com/p/AF1QipNAu96L6xXR90eZg5_UwVy5Q2hliBTo--rIU2wo=w203-h152-k-no",
            "location": {
                "longitude": -8.6669918,
                "langitude": 115.219583
            }
        },
        {
            "id": "mosque-bkdi",
            "name": "Masjid Baitul Mukminin BKDI Panjer",
            "url": "https://goo.gl/maps/Dee45uDmkVo",
            "image": "https://lh5.googleusercontent.com/p/AF1QipPbmWNPqJgGkL2cXCfSsIZJhYkKk33ktdWTUhWi=w203-h150-k-no",
            "location": {
                "longitude": -8.6873331,
                "langitude": 115.2259446
            }
        },
        {
            "id": "mosque-makmur",
            "name": "Masjid Baitul Makmur Monang-maning",
            "url": "https://goo.gl/maps/WfxSiCNLbhy",
            "image": "https://lh5.googleusercontent.com/p/AF1QipM_UuQ5zdtlkiBJi-AlnchmmXorTbr-JDF5XL-m=w203-h152-k-no",
            "location": {
                "longitude": -8.6604573,
                "langitude": 115.19558
            }
        },
        {
            "id": "mosque-syuhada",
            "name": "Masjid As-Syuhada Serangan",
            "url": "https://goo.gl/maps/CBbamU52F3o",
            "image": "https://lh5.googleusercontent.com/p/AF1QipNimnGnODQdDLqVRwYvCHNKIdSeSk-BmIFLLe93=w203-h152-k-no",
            "location": {
                "longitude": -8.7256609,
                "langitude": 115.2350854
            }
        }
    ]
}